[
    {
        "name": "CLIENT_WEB_APP",
        "allowedRoles": [
            "CLIENT"
        ]
    },
    {
        "name": "PHARMACY_WEB_APP",
        "allowedRoles": [
            "PHARMACY"
        ]
    },
    {
        "name": "ADMIN_WEB_APP",
        "allowedRoles": [
            "ADMIN"
        ]
    }
]